P2PChinese
…
P2PChinese

RRDai_Project_Main.csv

StopWords

stopwords the, a, an,of 

https://gist.github.com/dreampuf/5548203

## Warning: Calling `as_tibble()` on a vector is discouraged, because the behavior is likely to change in the future. Use `enframe(name = NULL)` instead.
## This warning is displayed once per session.

## # A tibble: 11,442,749 x 11
##       ID CertifiMark BidAmount   Age Nickname Sex     APR CreditRating
##    <int> <chr>           <dbl> <int> <chr>    <chr> <dbl> <chr>       
##  1   132       50000    46 ZhangL_      11.4 A           
##  2   132       50000    46 ZhangL_      11.4 A           
##  3   132       50000    46 ZhangL_      11.4 A           
##  4   132       50000    46 ZhangL_      11.4 A           
##  5   132       50000    46 ZhangL_      11.4 A           
##  6   132       50000    46 ZhangL_      11.4 A           
##  7   132       50000    46 ZhangL_      11.4 A           
##  8   132       50000    46 ZhangL_      11.4 A           
##  9   132       50000    46 ZhangL_      11.4 A           
## 10   132       50000    46 ZhangL_      11.4 A           
## #  with 11,442,739 more rows, and 3 more variables: ResidenceCity <chr>,
## #   LoanDesc <chr>, word <chr>
…
